%YAML 1.1
%TAG !u! tag:unity3d.com,2011:
--- !u!114 &11400000
MonoBehaviour:
  m_ObjectHideFlags: 0
  m_CorrespondingSourceObject: {fileID: 0}
  m_PrefabInstance: {fileID: 0}
  m_PrefabAsset: {fileID: 0}
  m_GameObject: {fileID: 0}
  m_Enabled: 1
  m_EditorHideFlags: 0
  m_Script: {fileID: 11500000, guid: 1770823102a9fad4296d9ae7a710f5f7, type: 3}
  m_Name: SemiAutoFireType
  m_EditorClassIdentifier: 
  typeName: Semi Automatic
  developerDescription: Standard Semi Auto Fire
