%YAML 1.1
%TAG !u! tag:unity3d.com,2011:
--- !u!114 &11400000
MonoBehaviour:
  m_ObjectHideFlags: 0
  m_CorrespondingSourceObject: {fileID: 0}
  m_PrefabInstance: {fileID: 0}
  m_PrefabAsset: {fileID: 0}
  m_GameObject: {fileID: 0}
  m_Enabled: 1
  m_EditorHideFlags: 0
  m_Script: {fileID: 11500000, guid: 9340e25f9c5fd5d46b340e1a1a4a060b, type: 3}
  m_Name: XM34 Blaster
  m_EditorClassIdentifier: 
  damagePerHit: 21
  refireTime: 0.5
  fireTypes:
  - {fileID: 11400000, guid: 85ecc9be07429824ab3c2e2339352482, type: 2}
